%YAML 1.1
%TAG !u! tag:unity3d.com,2011:
--- !u!687078895 &4343727234628468602
SpriteAtlas:
  m_ObjectHideFlags: 0
  m_CorrespondingSourceObject: {fileID: 0}
  m_PrefabInstance: {fileID: 0}
  m_PrefabAsset: {fileID: 0}
  m_Name: Atlas
  m_EditorData:
    serializedVersion: 2
    textureSettings:
      serializedVersion: 2
      anisoLevel: 1
      compressionQuality: 50
      maxTextureSize: 2048
      textureCompression: 0
      filterMode: 1
      generateMipMaps: 0
      readable: 0
      crunchedCompression: 0
      sRGB: 1
    platformSettings:
    - serializedVersion: 3
      m_BuildTarget: DefaultTexturePlatform
      m_MaxTextureSize: 1024
      m_ResizeAlgorithm: 0
      m_TextureFormat: -1
      m_TextureCompression: 1
      m_CompressionQuality: 50
      m_CrunchedCompression: 0
      m_AllowsAlphaSplitting: 0
      m_Overridden: 0
      m_AndroidETC2FallbackOverride: 0
      m_ForceMaximumCompressionQuality_BC6H_BC7: 0
    packingSettings:
      serializedVersion: 2
      padding: 4
      blockOffset: 1
      allowAlphaSplitting: 0
      enableRotation: 1
      enableTightPacking: 1
    variantMultiplier: 1
    packables:
    - {fileID: 102900000, guid: 677bc3376d8e6a34d9ee9f7d16fa0b80, type: 3}
    bindAsDefault: 1
  m_MasterAtlas: {fileID: 0}
  m_PackedSprites:
  - {fileID: 21300000, guid: dbaf61b0754d4294786899411f8ed2ff, type: 3}
  - {fileID: 21300000, guid: 825f83916ec640b46902eca5480499fa, type: 3}
  - {fileID: 21300000, guid: b9faba224a0254e4eab4d0a91494a3b8, type: 3}
  - {fileID: 21300000, guid: f3d0b56346360e44a96b3d7feba7ee1f, type: 3}
  - {fileID: 21300000, guid: 430399d95c3c9c945b3529ede1e419d4, type: 3}
  - {fileID: -7485647181696444128, guid: 52de3c6b01e09914e9f3c62631ff0c36, type: 3}
  - {fileID: -353220848889572736, guid: 52de3c6b01e09914e9f3c62631ff0c36, type: 3}
  - {fileID: -5160660819957252609, guid: 58eb3dbcd8e07c8449878688e34ccb88, type: 3}
  - {fileID: 6859263829080826081, guid: 58eb3dbcd8e07c8449878688e34ccb88, type: 3}
  - {fileID: 4408241631364836248, guid: 58eb3dbcd8e07c8449878688e34ccb88, type: 3}
  - {fileID: 5775632523447700598, guid: 58eb3dbcd8e07c8449878688e34ccb88, type: 3}
  m_PackedSpriteNamesToIndex:
  - UIPanel
  - ExplosiveBrick
  - Circle
  - Ball
  - Paddle
  - Bounds_Corner
  - Bounds_Edge
  - Bricks_0
  - Bricks_1
  - Bricks_2
  - Bricks_3
  m_Tag: Atlas
  m_IsVariant: 0
